<?xml version="1.0" encoding="utf-8"?>
<!-- Generator: Adobe Illustrator 16.0.0, SVG Export Plug-In . SVG Version: 6.00 Build 0)  -->
<!DOCTYPE svg PUBLIC "-//W3C//DTD SVG 1.1//EN" "http://www.w3.org/Graphics/SVG/1.1/DTD/svg11.dtd">
<svg version="1.1" id="Layer_1" xmlns="http://www.w3.org/2000/svg" xmlns:xlink="http://www.w3.org/1999/xlink" x="0px" y="0px"
	 width="200px" height="200px" viewBox="0 0 200 200" enable-background="new 0 0 200 200" xml:space="preserve">
<g>
	<path fill="#F2A625" d="M-99.087,31.239c3.488,13.827-4.891,27.865-18.717,31.354c-13.827,3.492-27.866-4.888-31.355-18.715
		c-3.489-13.827,4.889-27.865,18.718-31.356C-116.615,9.032-102.578,17.412-99.087,31.239"/>
	<path fill="#3D3D3F" d="M-124.169,63.989c-4.71,0-9.347-1.268-13.497-3.745c-6.06-3.617-10.349-9.376-12.074-16.22
		c-1.729-6.842-0.688-13.947,2.93-20.009c3.617-6.057,9.378-10.348,16.22-12.073c6.844-1.728,13.949-0.688,20.008,2.929
		c6.06,3.617,10.348,9.378,12.076,16.22s0.686,13.949-2.932,20.008c-3.617,6.06-9.377,10.349-16.22,12.076
		C-119.815,63.719-122,63.989-124.169,63.989 M-124.125,12.334c-2.04,0-4.106,0.249-6.17,0.77
		c-13.484,3.404-21.686,17.143-18.281,30.627c1.648,6.532,5.742,12.032,11.526,15.485c5.784,3.453,12.568,4.445,19.1,2.796
		c13.484-3.401,21.687-17.143,18.282-30.627C-102.552,19.966-112.849,12.334-124.125,12.334"/>
	<path fill="#3D3D3F" d="M-135.253,24.855l16.565-4.181l0.01,0.04c-0.545,1.954-0.87,3.008-0.974,3.166l-4.411,1.112
		c0.816,0.66,1.476,1.538,1.983,2.634l4.717-1.189c0.056,0,0.089,0.02,0.1,0.06c-0.605,2.056-0.919,3.094-0.942,3.114l-3.051,0.771
		c0.163,0.925,0.057,2.134-0.317,3.626c-0.63,1.556-1.323,2.64-2.076,3.248c-1.38,1.271-2.801,2.091-4.266,2.46l0.011,0.04
		c0.031,0.122,0.525,0.567,1.483,1.335l10.998,9.137l0.133,0.527c0.015,0.054-0.007,0.089-0.06,0.102l-3.599,0.909
		c-8.633-6.916-12.957-10.394-12.967-10.434l-0.657-2.604l0.017-0.111c0.592-0.047,1.275-0.169,2.047-0.364
		c3.617-0.914,5.538-2.818,5.758-5.714c0.035-0.426,0.002-0.842-0.1-1.25l-9.838,2.483c-0.055,0.014-0.09-0.013-0.107-0.08
		c0.633-2.064,0.963-3.098,0.99-3.105l7.826-1.976l-0.011-0.04c-0.721-0.914-1.79-1.494-3.208-1.742
		c-1.006-0.106-1.875-0.068-2.606,0.118l-4.371,1.102l-0.028-0.1C-135.597,25.893-135.281,24.86-135.253,24.855"/>
	<path fill="#F2A625" d="M-63.938,46.741c0,14.261-11.56,25.822-25.821,25.822c-14.26,0-25.821-11.561-25.821-25.822
		s11.561-25.82,25.821-25.82C-75.498,20.921-63.938,32.48-63.938,46.741"/>
	<path fill="#3D3D3F" d="M-89.76,73.162c-14.568,0-26.42-11.853-26.42-26.42c0-14.569,11.852-26.423,26.42-26.423
		s26.422,11.854,26.422,26.423C-63.338,61.309-75.191,73.162-89.76,73.162 M-89.76,21.52c-13.907,0-25.222,11.315-25.222,25.222
		c0,13.907,11.315,25.22,25.222,25.22c13.907,0,25.223-11.313,25.223-25.22C-64.537,32.835-75.853,21.52-89.76,21.52"/>
	<path fill="#3D3D3F" d="M-97.442,31.7h17.085v0.042c-1.008,1.761-1.58,2.703-1.719,2.831h-4.548
		c0.627,0.837,1.053,1.851,1.277,3.039h4.863c0.057,0.015,0.083,0.042,0.083,0.084c-1.088,1.844-1.649,2.774-1.676,2.787h-3.145
		c-0.069,0.938-0.47,2.083-1.195,3.439c-0.992,1.355-1.929,2.236-2.809,2.641c-1.65,0.894-3.229,1.34-4.737,1.34v0.044
		c0,0.126,0.369,0.676,1.11,1.654l8.428,11.55v0.545c0,0.057-0.029,0.084-0.084,0.084h-3.709
		c-6.684-8.817-10.021-13.247-10.021-13.291v-2.684l0.041-0.104c0.588,0.097,1.278,0.146,2.075,0.146
		c3.733,0,6.058-1.375,6.98-4.129c0.14-0.405,0.211-0.817,0.211-1.237h-10.146c-0.057,0-0.085-0.035-0.085-0.104
		c1.116-1.844,1.688-2.767,1.719-2.767h8.069V37.57c-0.474-1.061-1.37-1.886-2.681-2.473c-0.951-0.351-1.805-0.524-2.56-0.524
		h-4.506v-0.106C-98.03,32.623-97.473,31.7-97.442,31.7"/>
	<path fill="#5167B0" d="M-20.151,169.169c0,6.878-4.728,12.453-10.562,12.453h-148.118c-5.833,0-10.561-5.575-10.561-12.453V68.092
		c0-6.877,4.728-12.454,10.561-12.454h148.118c5.834,0,10.562,5.577,10.562,12.454V169.169z"/>
	<g>
		<defs>
			<rect id="SVGID_1_" x="-164.974" y="66.932" width="7.744" height="0.881"/>
		</defs>
		<clipPath id="SVGID_2_">
			<use xlink:href="#SVGID_1_"  overflow="visible"/>
		</clipPath>
		
			<linearGradient id="SVGID_3_" gradientUnits="userSpaceOnUse" x1="-205.9263" y1="447.7891" x2="-204.1021" y2="447.7891" gradientTransform="matrix(4.2453 0 0 -4.2453 709.2383 1968.3633)">
			<stop  offset="0" style="stop-color:#FFFFFF"/>
			<stop  offset="1" style="stop-color:#DBDAD9"/>
		</linearGradient>
		<rect x="-164.974" y="66.932" clip-path="url(#SVGID_2_)" fill="url(#SVGID_3_)" width="7.744" height="0.881"/>
	</g>
	<g>
		<defs>
			<rect id="SVGID_4_" x="-153.945" y="66.932" width="7.745" height="0.881"/>
		</defs>
		<clipPath id="SVGID_5_">
			<use xlink:href="#SVGID_4_"  overflow="visible"/>
		</clipPath>
		
			<linearGradient id="SVGID_6_" gradientUnits="userSpaceOnUse" x1="-204.7515" y1="447.7969" x2="-202.9272" y2="447.7969" gradientTransform="matrix(4.2458 0 0 -4.2458 715.3828 1968.6172)">
			<stop  offset="0" style="stop-color:#FFFFFF"/>
			<stop  offset="1" style="stop-color:#DBDAD9"/>
		</linearGradient>
		<rect x="-153.945" y="66.932" clip-path="url(#SVGID_5_)" fill="url(#SVGID_6_)" width="7.745" height="0.881"/>
	</g>
	<g>
		<defs>
			<rect id="SVGID_7_" x="-142.911" y="66.932" width="7.745" height="0.881"/>
		</defs>
		<clipPath id="SVGID_8_">
			<use xlink:href="#SVGID_7_"  overflow="visible"/>
		</clipPath>
		
			<linearGradient id="SVGID_9_" gradientUnits="userSpaceOnUse" x1="-203.5771" y1="447.7998" x2="-201.7529" y2="447.7998" gradientTransform="matrix(4.2459 0 0 -4.2459 721.4648 1968.7031)">
			<stop  offset="0" style="stop-color:#FFFFFF"/>
			<stop  offset="1" style="stop-color:#DBDAD9"/>
		</linearGradient>
		<rect x="-142.911" y="66.932" clip-path="url(#SVGID_8_)" fill="url(#SVGID_9_)" width="7.745" height="0.881"/>
	</g>
	<g>
		<defs>
			<rect id="SVGID_10_" x="-131.868" y="66.932" width="7.746" height="0.881"/>
		</defs>
		<clipPath id="SVGID_11_">
			<use xlink:href="#SVGID_10_"  overflow="visible"/>
		</clipPath>
		
			<linearGradient id="SVGID_12_" gradientUnits="userSpaceOnUse" x1="-202.4014" y1="447.8027" x2="-200.5771" y2="447.8027" gradientTransform="matrix(4.2461 0 0 -4.2461 727.5508 1968.7852)">
			<stop  offset="0" style="stop-color:#FFFFFF"/>
			<stop  offset="1" style="stop-color:#DBDAD9"/>
		</linearGradient>
		<rect x="-131.868" y="66.932" clip-path="url(#SVGID_11_)" fill="url(#SVGID_12_)" width="7.746" height="0.881"/>
	</g>
	<g>
		<defs>
			<rect id="SVGID_13_" x="-120.843" y="66.932" width="7.746" height="0.881"/>
		</defs>
		<clipPath id="SVGID_14_">
			<use xlink:href="#SVGID_13_"  overflow="visible"/>
		</clipPath>
		
			<linearGradient id="SVGID_15_" gradientUnits="userSpaceOnUse" x1="-201.2295" y1="447.7891" x2="-199.4053" y2="447.7891" gradientTransform="matrix(4.2453 0 0 -4.2453 733.4414 1968.3789)">
			<stop  offset="0" style="stop-color:#FFFFFF"/>
			<stop  offset="1" style="stop-color:#DBDAD9"/>
		</linearGradient>
		<rect x="-120.843" y="66.932" clip-path="url(#SVGID_14_)" fill="url(#SVGID_15_)" width="7.746" height="0.881"/>
	</g>
	<g>
		<defs>
			<rect id="SVGID_16_" x="-109.811" y="66.932" width="7.742" height="0.881"/>
		</defs>
		<clipPath id="SVGID_17_">
			<use xlink:href="#SVGID_16_"  overflow="visible"/>
		</clipPath>
		
			<linearGradient id="SVGID_18_" gradientUnits="userSpaceOnUse" x1="-200.0547" y1="447.793" x2="-198.2314" y2="447.793" gradientTransform="matrix(4.2455 0 0 -4.2455 739.5195 1968.4648)">
			<stop  offset="0" style="stop-color:#FFFFFF"/>
			<stop  offset="1" style="stop-color:#DBDAD9"/>
		</linearGradient>
		<rect x="-109.811" y="66.932" clip-path="url(#SVGID_17_)" fill="url(#SVGID_18_)" width="7.742" height="0.881"/>
	</g>
	<g>
		<defs>
			<rect id="SVGID_19_" x="-98.778" y="66.932" width="7.745" height="0.881"/>
		</defs>
		<clipPath id="SVGID_20_">
			<use xlink:href="#SVGID_19_"  overflow="visible"/>
		</clipPath>
		
			<linearGradient id="SVGID_21_" gradientUnits="userSpaceOnUse" x1="-198.8818" y1="447.7969" x2="-197.0576" y2="447.7969" gradientTransform="matrix(4.2458 0 0 -4.2458 745.625 1968.6172)">
			<stop  offset="0" style="stop-color:#FFFFFF"/>
			<stop  offset="1" style="stop-color:#DBDAD9"/>
		</linearGradient>
		<rect x="-98.778" y="66.932" clip-path="url(#SVGID_20_)" fill="url(#SVGID_21_)" width="7.745" height="0.881"/>
	</g>
	<g>
		<defs>
			<rect id="SVGID_22_" x="-87.732" y="66.932" width="7.744" height="0.881"/>
		</defs>
		<clipPath id="SVGID_23_">
			<use xlink:href="#SVGID_22_"  overflow="visible"/>
		</clipPath>
		
			<linearGradient id="SVGID_24_" gradientUnits="userSpaceOnUse" x1="-197.7061" y1="447.7813" x2="-195.8818" y2="447.7813" gradientTransform="matrix(4.2448 0 0 -4.2448 751.4961 1968.1211)">
			<stop  offset="0" style="stop-color:#FFFFFF"/>
			<stop  offset="1" style="stop-color:#DBDAD9"/>
		</linearGradient>
		<rect x="-87.732" y="66.932" clip-path="url(#SVGID_23_)" fill="url(#SVGID_24_)" width="7.744" height="0.881"/>
	</g>
	<g>
		<defs>
			<rect id="SVGID_25_" x="-76.713" y="66.932" width="7.742" height="0.881"/>
		</defs>
		<clipPath id="SVGID_26_">
			<use xlink:href="#SVGID_25_"  overflow="visible"/>
		</clipPath>
		
			<linearGradient id="SVGID_27_" gradientUnits="userSpaceOnUse" x1="-196.5332" y1="447.7998" x2="-194.7095" y2="447.7998" gradientTransform="matrix(4.2459 0 0 -4.2459 757.7539 1968.7031)">
			<stop  offset="0" style="stop-color:#FFFFFF"/>
			<stop  offset="1" style="stop-color:#DBDAD9"/>
		</linearGradient>
		<rect x="-76.713" y="66.932" clip-path="url(#SVGID_26_)" fill="url(#SVGID_27_)" width="7.742" height="0.881"/>
	</g>
	<g>
		<defs>
			<rect id="SVGID_28_" x="-65.668" y="66.932" width="7.745" height="0.881"/>
		</defs>
		<clipPath id="SVGID_29_">
			<use xlink:href="#SVGID_28_"  overflow="visible"/>
		</clipPath>
		
			<linearGradient id="SVGID_30_" gradientUnits="userSpaceOnUse" x1="-195.3579" y1="447.7998" x2="-193.5337" y2="447.7998" gradientTransform="matrix(4.2459 0 0 -4.2459 763.8086 1968.7031)">
			<stop  offset="0" style="stop-color:#FFFFFF"/>
			<stop  offset="1" style="stop-color:#DBDAD9"/>
		</linearGradient>
		<rect x="-65.668" y="66.932" clip-path="url(#SVGID_29_)" fill="url(#SVGID_30_)" width="7.745" height="0.881"/>
	</g>
	<g>
		<defs>
			<rect id="SVGID_31_" x="-54.659" y="66.932" width="7.745" height="0.881"/>
		</defs>
		<clipPath id="SVGID_32_">
			<use xlink:href="#SVGID_31_"  overflow="visible"/>
		</clipPath>
		
			<linearGradient id="SVGID_33_" gradientUnits="userSpaceOnUse" x1="-194.1865" y1="447.7998" x2="-192.3623" y2="447.7998" gradientTransform="matrix(4.2459 0 0 -4.2459 769.8438 1968.7031)">
			<stop  offset="0" style="stop-color:#FFFFFF"/>
			<stop  offset="1" style="stop-color:#DBDAD9"/>
		</linearGradient>
		<rect x="-54.659" y="66.932" clip-path="url(#SVGID_32_)" fill="url(#SVGID_33_)" width="7.745" height="0.881"/>
	</g>
	<g>
		<defs>
			<rect id="SVGID_34_" x="-43.626" y="66.932" width="7.745" height="0.881"/>
		</defs>
		<clipPath id="SVGID_35_">
			<use xlink:href="#SVGID_34_"  overflow="visible"/>
		</clipPath>
		
			<linearGradient id="SVGID_36_" gradientUnits="userSpaceOnUse" x1="-193.0127" y1="447.7969" x2="-191.1885" y2="447.7969" gradientTransform="matrix(4.2458 0 0 -4.2458 775.8633 1968.6172)">
			<stop  offset="0" style="stop-color:#FFFFFF"/>
			<stop  offset="1" style="stop-color:#DBDAD9"/>
		</linearGradient>
		<rect x="-43.626" y="66.932" clip-path="url(#SVGID_35_)" fill="url(#SVGID_36_)" width="7.745" height="0.881"/>
	</g>
	<g>
		<defs>
			<polygon id="SVGID_37_" points="-33.571,68.378 -29.87,76.131 -29.193,75.709 -32.89,67.959 			"/>
		</defs>
		<clipPath id="SVGID_38_">
			<use xlink:href="#SVGID_37_"  overflow="visible"/>
		</clipPath>
		
			<linearGradient id="SVGID_39_" gradientUnits="userSpaceOnUse" x1="-188.0547" y1="390.6475" x2="-186.231" y2="390.6475" gradientTransform="matrix(2.4005 0 0 -2.4005 417.8574 1009.8008)">
			<stop  offset="0" style="stop-color:#FFFFFF"/>
			<stop  offset="1" style="stop-color:#DBDAD9"/>
		</linearGradient>
		<rect x="-33.571" y="67.959" clip-path="url(#SVGID_38_)" fill="url(#SVGID_39_)" width="4.378" height="8.172"/>
	</g>
	<g>
		<defs>
			<rect id="SVGID_40_" x="-30.813" y="77.663" width="0.775" height="8.821"/>
		</defs>
		<clipPath id="SVGID_41_">
			<use xlink:href="#SVGID_40_"  overflow="visible"/>
		</clipPath>
		
			<linearGradient id="SVGID_42_" gradientUnits="userSpaceOnUse" x1="-143.5283" y1="-226.1309" x2="-141.7021" y2="-226.1309" gradientTransform="matrix(0.4249 0 0 -0.4249 30.1702 -14.0061)">
			<stop  offset="0" style="stop-color:#FFFFFF"/>
			<stop  offset="1" style="stop-color:#DBDAD9"/>
		</linearGradient>
		<rect x="-30.813" y="77.663" clip-path="url(#SVGID_41_)" fill="url(#SVGID_42_)" width="0.775" height="8.821"/>
	</g>
	<g>
		<defs>
			<rect id="SVGID_43_" x="-30.813" y="90.246" width="0.775" height="8.821"/>
		</defs>
		<clipPath id="SVGID_44_">
			<use xlink:href="#SVGID_43_"  overflow="visible"/>
		</clipPath>
		
			<linearGradient id="SVGID_45_" gradientUnits="userSpaceOnUse" x1="-143.5283" y1="-239.5088" x2="-141.7021" y2="-239.5088" gradientTransform="matrix(0.4249 0 0 -0.4249 30.1702 -7.1077)">
			<stop  offset="0" style="stop-color:#FFFFFF"/>
			<stop  offset="1" style="stop-color:#DBDAD9"/>
		</linearGradient>
		<rect x="-30.813" y="90.246" clip-path="url(#SVGID_44_)" fill="url(#SVGID_45_)" width="0.775" height="8.821"/>
	</g>
	<g>
		<defs>
			<rect id="SVGID_46_" x="-30.813" y="102.818" width="0.775" height="8.821"/>
		</defs>
		<clipPath id="SVGID_47_">
			<use xlink:href="#SVGID_46_"  overflow="visible"/>
		</clipPath>
		
			<linearGradient id="SVGID_48_" gradientUnits="userSpaceOnUse" x1="-143.5283" y1="-252.8789" x2="-141.7021" y2="-252.8789" gradientTransform="matrix(0.4249 0 0 -0.4249 30.1702 -0.2161)">
			<stop  offset="0" style="stop-color:#FFFFFF"/>
			<stop  offset="1" style="stop-color:#DBDAD9"/>
		</linearGradient>
		<rect x="-30.813" y="102.818" clip-path="url(#SVGID_47_)" fill="url(#SVGID_48_)" width="0.775" height="8.821"/>
	</g>
	<g>
		<defs>
			<rect id="SVGID_49_" x="-30.813" y="115.373" width="0.775" height="8.821"/>
		</defs>
		<clipPath id="SVGID_50_">
			<use xlink:href="#SVGID_49_"  overflow="visible"/>
		</clipPath>
		
			<linearGradient id="SVGID_51_" gradientUnits="userSpaceOnUse" x1="-143.5283" y1="-266.2285" x2="-141.7021" y2="-266.2285" gradientTransform="matrix(0.4249 0 0 -0.4249 30.1702 6.6667)">
			<stop  offset="0" style="stop-color:#FFFFFF"/>
			<stop  offset="1" style="stop-color:#DBDAD9"/>
		</linearGradient>
		<rect x="-30.813" y="115.373" clip-path="url(#SVGID_50_)" fill="url(#SVGID_51_)" width="0.775" height="8.821"/>
	</g>
	<g>
		<defs>
			<rect id="SVGID_52_" x="-30.813" y="127.925" width="0.775" height="8.821"/>
		</defs>
		<clipPath id="SVGID_53_">
			<use xlink:href="#SVGID_52_"  overflow="visible"/>
		</clipPath>
		
			<linearGradient id="SVGID_54_" gradientUnits="userSpaceOnUse" x1="-143.5283" y1="-279.5723" x2="-141.7021" y2="-279.5723" gradientTransform="matrix(0.4249 0 0 -0.4249 30.1702 13.5486)">
			<stop  offset="0" style="stop-color:#FFFFFF"/>
			<stop  offset="1" style="stop-color:#DBDAD9"/>
		</linearGradient>
		<rect x="-30.813" y="127.925" clip-path="url(#SVGID_53_)" fill="url(#SVGID_54_)" width="0.775" height="8.821"/>
	</g>
	<g>
		<defs>
			<rect id="SVGID_55_" x="-30.813" y="140.505" width="0.775" height="8.821"/>
		</defs>
		<clipPath id="SVGID_56_">
			<use xlink:href="#SVGID_55_"  overflow="visible"/>
		</clipPath>
		
			<linearGradient id="SVGID_57_" gradientUnits="userSpaceOnUse" x1="-143.5283" y1="-292.9492" x2="-141.7021" y2="-292.9492" gradientTransform="matrix(0.4249 0 0 -0.4249 30.1702 20.4451)">
			<stop  offset="0" style="stop-color:#FFFFFF"/>
			<stop  offset="1" style="stop-color:#DBDAD9"/>
		</linearGradient>
		<rect x="-30.813" y="140.505" clip-path="url(#SVGID_56_)" fill="url(#SVGID_57_)" width="0.775" height="8.821"/>
	</g>
	<g>
		<defs>
			<rect id="SVGID_58_" x="-30.813" y="153.074" width="0.775" height="8.823"/>
		</defs>
		<clipPath id="SVGID_59_">
			<use xlink:href="#SVGID_58_"  overflow="visible"/>
		</clipPath>
		
			<linearGradient id="SVGID_60_" gradientUnits="userSpaceOnUse" x1="-143.5283" y1="-306.3203" x2="-141.7021" y2="-306.3203" gradientTransform="matrix(0.4249 0 0 -0.4249 30.1702 27.3357)">
			<stop  offset="0" style="stop-color:#FFFFFF"/>
			<stop  offset="1" style="stop-color:#DBDAD9"/>
		</linearGradient>
		<rect x="-30.813" y="153.076" clip-path="url(#SVGID_59_)" fill="url(#SVGID_60_)" width="0.775" height="8.821"/>
	</g>
	<g>
		<defs>
			<polygon id="SVGID_61_" points="-37.047,170.343 -36.593,171.059 -30.313,165.889 -30.768,165.173 			"/>
		</defs>
		<clipPath id="SVGID_62_">
			<use xlink:href="#SVGID_61_"  overflow="visible"/>
		</clipPath>
		
			<linearGradient id="SVGID_63_" gradientUnits="userSpaceOnUse" x1="-191.6074" y1="424.459" x2="-189.7832" y2="424.459" gradientTransform="matrix(3.6909 0 0 -3.6909 670.1582 1734.7539)">
			<stop  offset="0" style="stop-color:#FFFFFF"/>
			<stop  offset="1" style="stop-color:#DBDAD9"/>
		</linearGradient>
		<rect x="-37.047" y="165.173" clip-path="url(#SVGID_62_)" fill="url(#SVGID_63_)" width="6.733" height="5.886"/>
	</g>
	<g>
		<defs>
			<rect id="SVGID_64_" x="-45.639" y="169.446" width="7.743" height="0.882"/>
		</defs>
		<clipPath id="SVGID_65_">
			<use xlink:href="#SVGID_64_"  overflow="visible"/>
		</clipPath>
		
			<linearGradient id="SVGID_66_" gradientUnits="userSpaceOnUse" x1="-193.2266" y1="436.8809" x2="-191.4028" y2="436.8809" gradientTransform="matrix(4.2454 0 0 -4.2454 774.6953 2024.6445)">
			<stop  offset="0" style="stop-color:#FFFFFF"/>
			<stop  offset="1" style="stop-color:#DBDAD9"/>
		</linearGradient>
		<rect x="-45.639" y="169.446" clip-path="url(#SVGID_65_)" fill="url(#SVGID_66_)" width="7.743" height="0.884"/>
	</g>
	<g>
		<defs>
			<rect id="SVGID_67_" x="-56.66" y="169.446" width="7.744" height="0.882"/>
		</defs>
		<clipPath id="SVGID_68_">
			<use xlink:href="#SVGID_67_"  overflow="visible"/>
		</clipPath>
		
			<linearGradient id="SVGID_69_" gradientUnits="userSpaceOnUse" x1="-194.3994" y1="436.8926" x2="-192.5752" y2="436.8926" gradientTransform="matrix(4.2459 0 0 -4.2459 768.7461 2024.9023)">
			<stop  offset="0" style="stop-color:#FFFFFF"/>
			<stop  offset="1" style="stop-color:#DBDAD9"/>
		</linearGradient>
		<rect x="-56.66" y="169.446" clip-path="url(#SVGID_68_)" fill="url(#SVGID_69_)" width="7.744" height="0.882"/>
	</g>
	<g>
		<defs>
			<rect id="SVGID_70_" x="-67.717" y="169.446" width="7.742" height="0.882"/>
		</defs>
		<clipPath id="SVGID_71_">
			<use xlink:href="#SVGID_70_"  overflow="visible"/>
		</clipPath>
		
			<linearGradient id="SVGID_72_" gradientUnits="userSpaceOnUse" x1="-195.5762" y1="436.8789" x2="-193.752" y2="436.8789" gradientTransform="matrix(4.2453 0 0 -4.2453 762.5625 2024.5781)">
			<stop  offset="0" style="stop-color:#FFFFFF"/>
			<stop  offset="1" style="stop-color:#DBDAD9"/>
		</linearGradient>
		<rect x="-67.717" y="169.446" clip-path="url(#SVGID_71_)" fill="url(#SVGID_72_)" width="7.742" height="0.882"/>
	</g>
	<g>
		<defs>
			<rect id="SVGID_73_" x="-78.74" y="169.446" width="7.746" height="0.882"/>
		</defs>
		<clipPath id="SVGID_74_">
			<use xlink:href="#SVGID_73_"  overflow="visible"/>
		</clipPath>
		
			<linearGradient id="SVGID_75_" gradientUnits="userSpaceOnUse" x1="-196.748" y1="436.8965" x2="-194.9238" y2="436.8965" gradientTransform="matrix(4.2461 0 0 -4.2461 756.6758 2024.9883)">
			<stop  offset="0" style="stop-color:#FFFFFF"/>
			<stop  offset="1" style="stop-color:#DBDAD9"/>
		</linearGradient>
		<rect x="-78.74" y="169.446" clip-path="url(#SVGID_74_)" fill="url(#SVGID_75_)" width="7.746" height="0.882"/>
	</g>
	<g>
		<defs>
			<rect id="SVGID_76_" x="-89.76" y="169.446" width="7.742" height="0.882"/>
		</defs>
		<clipPath id="SVGID_77_">
			<use xlink:href="#SVGID_76_"  overflow="visible"/>
		</clipPath>
		
			<linearGradient id="SVGID_78_" gradientUnits="userSpaceOnUse" x1="-197.9219" y1="436.8789" x2="-196.0977" y2="436.8789" gradientTransform="matrix(4.2453 0 0 -4.2453 750.4727 2024.5625)">
			<stop  offset="0" style="stop-color:#FFFFFF"/>
			<stop  offset="1" style="stop-color:#DBDAD9"/>
		</linearGradient>
		<rect x="-89.76" y="169.446" clip-path="url(#SVGID_77_)" fill="url(#SVGID_78_)" width="7.742" height="0.884"/>
	</g>
	<g>
		<defs>
			<rect id="SVGID_79_" x="-100.804" y="169.446" width="7.743" height="0.882"/>
		</defs>
		<clipPath id="SVGID_80_">
			<use xlink:href="#SVGID_79_"  overflow="visible"/>
		</clipPath>
		
			<linearGradient id="SVGID_81_" gradientUnits="userSpaceOnUse" x1="-199.0972" y1="436.8789" x2="-197.2734" y2="436.8789" gradientTransform="matrix(4.2453 0 0 -4.2453 744.418 2024.5625)">
			<stop  offset="0" style="stop-color:#FFFFFF"/>
			<stop  offset="1" style="stop-color:#DBDAD9"/>
		</linearGradient>
		<rect x="-100.804" y="169.446" clip-path="url(#SVGID_80_)" fill="url(#SVGID_81_)" width="7.743" height="0.884"/>
	</g>
	<g>
		<defs>
			<rect id="SVGID_82_" x="-111.83" y="169.446" width="7.745" height="0.882"/>
		</defs>
		<clipPath id="SVGID_83_">
			<use xlink:href="#SVGID_82_"  overflow="visible"/>
		</clipPath>
		
			<linearGradient id="SVGID_84_" gradientUnits="userSpaceOnUse" x1="-200.27" y1="436.8887" x2="-198.4463" y2="436.8887" gradientTransform="matrix(4.2458 0 0 -4.2458 738.4688 2024.8203)">
			<stop  offset="0" style="stop-color:#FFFFFF"/>
			<stop  offset="1" style="stop-color:#DBDAD9"/>
		</linearGradient>
		<rect x="-111.83" y="169.446" clip-path="url(#SVGID_83_)" fill="url(#SVGID_84_)" width="7.745" height="0.882"/>
	</g>
	<g>
		<defs>
			<rect id="SVGID_85_" x="-122.871" y="169.446" width="7.743" height="0.882"/>
		</defs>
		<clipPath id="SVGID_86_">
			<use xlink:href="#SVGID_85_"  overflow="visible"/>
		</clipPath>
		
			<linearGradient id="SVGID_87_" gradientUnits="userSpaceOnUse" x1="-201.4453" y1="436.8789" x2="-199.6211" y2="436.8789" gradientTransform="matrix(4.2453 0 0 -4.2453 732.3203 2024.5625)">
			<stop  offset="0" style="stop-color:#FFFFFF"/>
			<stop  offset="1" style="stop-color:#DBDAD9"/>
		</linearGradient>
		<rect x="-122.871" y="169.446" clip-path="url(#SVGID_86_)" fill="url(#SVGID_87_)" width="7.743" height="0.884"/>
	</g>
	<g>
		<defs>
			<rect id="SVGID_88_" x="-133.898" y="169.446" width="7.746" height="0.882"/>
		</defs>
		<clipPath id="SVGID_89_">
			<use xlink:href="#SVGID_88_"  overflow="visible"/>
		</clipPath>
		
			<linearGradient id="SVGID_90_" gradientUnits="userSpaceOnUse" x1="-202.6182" y1="436.8926" x2="-200.7939" y2="436.8926" gradientTransform="matrix(4.246 0 0 -4.246 726.4141 2024.9219)">
			<stop  offset="0" style="stop-color:#FFFFFF"/>
			<stop  offset="1" style="stop-color:#DBDAD9"/>
		</linearGradient>
		<rect x="-133.898" y="169.446" clip-path="url(#SVGID_89_)" fill="url(#SVGID_90_)" width="7.746" height="0.882"/>
	</g>
	<g>
		<defs>
			<rect id="SVGID_91_" x="-144.921" y="169.446" width="7.744" height="0.882"/>
		</defs>
		<clipPath id="SVGID_92_">
			<use xlink:href="#SVGID_91_"  overflow="visible"/>
		</clipPath>
		
			<linearGradient id="SVGID_93_" gradientUnits="userSpaceOnUse" x1="-203.791" y1="436.8887" x2="-201.9673" y2="436.8887" gradientTransform="matrix(4.2458 0 0 -4.2458 720.3281 2024.8203)">
			<stop  offset="0" style="stop-color:#FFFFFF"/>
			<stop  offset="1" style="stop-color:#DBDAD9"/>
		</linearGradient>
		<rect x="-144.921" y="169.446" clip-path="url(#SVGID_92_)" fill="url(#SVGID_93_)" width="7.744" height="0.882"/>
	</g>
	<g>
		<defs>
			<rect id="SVGID_94_" x="-155.964" y="169.446" width="7.745" height="0.882"/>
		</defs>
		<clipPath id="SVGID_95_">
			<use xlink:href="#SVGID_94_"  overflow="visible"/>
		</clipPath>
		
			<linearGradient id="SVGID_96_" gradientUnits="userSpaceOnUse" x1="-204.9663" y1="436.8906" x2="-203.1421" y2="436.8906" gradientTransform="matrix(4.2459 0 0 -4.2459 714.3086 2024.9023)">
			<stop  offset="0" style="stop-color:#FFFFFF"/>
			<stop  offset="1" style="stop-color:#DBDAD9"/>
		</linearGradient>
		<rect x="-155.964" y="169.446" clip-path="url(#SVGID_95_)" fill="url(#SVGID_96_)" width="7.745" height="0.882"/>
	</g>
	<g>
		<defs>
			<rect id="SVGID_97_" x="-166.982" y="169.446" width="7.744" height="0.882"/>
		</defs>
		<clipPath id="SVGID_98_">
			<use xlink:href="#SVGID_97_"  overflow="visible"/>
		</clipPath>
		
			<linearGradient id="SVGID_99_" gradientUnits="userSpaceOnUse" x1="-206.1401" y1="436.8789" x2="-204.3159" y2="436.8789" gradientTransform="matrix(4.2453 0 0 -4.2453 708.1367 2024.5625)">
			<stop  offset="0" style="stop-color:#FFFFFF"/>
			<stop  offset="1" style="stop-color:#DBDAD9"/>
		</linearGradient>
		<rect x="-166.982" y="169.446" clip-path="url(#SVGID_98_)" fill="url(#SVGID_99_)" width="7.744" height="0.884"/>
	</g>
	<g>
		<defs>
			<polygon id="SVGID_100_" points="-178.707,166.915 -171.949,171.229 -171.572,170.46 -178.328,166.146 			"/>
		</defs>
		<clipPath id="SVGID_101_">
			<use xlink:href="#SVGID_100_"  overflow="visible"/>
		</clipPath>
		
			<linearGradient id="SVGID_102_" gradientUnits="userSpaceOnUse" x1="-208.2734" y1="429.8418" x2="-206.4492" y2="429.8418" gradientTransform="matrix(3.9116 0 0 -3.9116 635.9805 1850.0625)">
			<stop  offset="0" style="stop-color:#FFFFFF"/>
			<stop  offset="1" style="stop-color:#DBDAD9"/>
		</linearGradient>
		<rect x="-178.707" y="166.146" clip-path="url(#SVGID_101_)" fill="url(#SVGID_102_)" width="7.135" height="5.084"/>
	</g>
	<g>
		<defs>
			<polygon id="SVGID_103_" points="-180.028,157.776 -178.853,166.495 -178.089,166.363 -179.262,157.645 			"/>
		</defs>
		<clipPath id="SVGID_104_">
			<use xlink:href="#SVGID_103_"  overflow="visible"/>
		</clipPath>
		
			<linearGradient id="SVGID_105_" gradientUnits="userSpaceOnUse" x1="-239.041" y1="188.3984" x2="-237.2173" y2="188.3984" gradientTransform="matrix(1.0631 0 0 -1.0631 74.0957 362.3555)">
			<stop  offset="0" style="stop-color:#FFFFFF"/>
			<stop  offset="1" style="stop-color:#DBDAD9"/>
		</linearGradient>
		<rect x="-180.028" y="157.645" clip-path="url(#SVGID_104_)" fill="url(#SVGID_105_)" width="1.939" height="8.851"/>
	</g>
	<g>
		<defs>
			<rect id="SVGID_106_" x="-179.506" y="145.812" width="0.774" height="8.823"/>
		</defs>
		<clipPath id="SVGID_107_">
			<use xlink:href="#SVGID_106_"  overflow="visible"/>
		</clipPath>
		
			<linearGradient id="SVGID_108_" gradientUnits="userSpaceOnUse" x1="-301.6372" y1="-298.5898" x2="-299.8149" y2="-298.5898" gradientTransform="matrix(0.4249 0 0 -0.4249 -51.3455 23.3552)">
			<stop  offset="0" style="stop-color:#FFFFFF"/>
			<stop  offset="1" style="stop-color:#DBDAD9"/>
		</linearGradient>
		<rect x="-179.506" y="145.812" clip-path="url(#SVGID_107_)" fill="url(#SVGID_108_)" width="0.774" height="8.823"/>
	</g>
	<g>
		<defs>
			<rect id="SVGID_109_" x="-179.506" y="133.229" width="0.774" height="8.821"/>
		</defs>
		<clipPath id="SVGID_110_">
			<use xlink:href="#SVGID_109_"  overflow="visible"/>
		</clipPath>
		
			<linearGradient id="SVGID_111_" gradientUnits="userSpaceOnUse" x1="-301.6372" y1="-285.2051" x2="-299.8149" y2="-285.2051" gradientTransform="matrix(0.4249 0 0 -0.4249 -51.3455 16.4587)">
			<stop  offset="0" style="stop-color:#FFFFFF"/>
			<stop  offset="1" style="stop-color:#DBDAD9"/>
		</linearGradient>
		<rect x="-179.506" y="133.229" clip-path="url(#SVGID_110_)" fill="url(#SVGID_111_)" width="0.774" height="8.821"/>
	</g>
	<g>
		<defs>
			<rect id="SVGID_112_" x="-179.506" y="120.678" width="0.774" height="8.821"/>
		</defs>
		<clipPath id="SVGID_113_">
			<use xlink:href="#SVGID_112_"  overflow="visible"/>
		</clipPath>
		
			<linearGradient id="SVGID_114_" gradientUnits="userSpaceOnUse" x1="-301.6372" y1="-271.8594" x2="-299.8149" y2="-271.8594" gradientTransform="matrix(0.4249 0 0 -0.4249 -51.3455 9.5779)">
			<stop  offset="0" style="stop-color:#FFFFFF"/>
			<stop  offset="1" style="stop-color:#DBDAD9"/>
		</linearGradient>
		<rect x="-179.506" y="120.678" clip-path="url(#SVGID_113_)" fill="url(#SVGID_114_)" width="0.774" height="8.821"/>
	</g>
	<g>
		<defs>
			<rect id="SVGID_115_" x="-179.506" y="108.102" width="0.774" height="8.821"/>
		</defs>
		<clipPath id="SVGID_116_">
			<use xlink:href="#SVGID_115_"  overflow="visible"/>
		</clipPath>
		
			<linearGradient id="SVGID_117_" gradientUnits="userSpaceOnUse" x1="-301.6372" y1="-258.4893" x2="-299.8149" y2="-258.4893" gradientTransform="matrix(0.4249 0 0 -0.4249 -51.3455 2.6824)">
			<stop  offset="0" style="stop-color:#FFFFFF"/>
			<stop  offset="1" style="stop-color:#DBDAD9"/>
		</linearGradient>
		<rect x="-179.506" y="108.102" clip-path="url(#SVGID_116_)" fill="url(#SVGID_117_)" width="0.774" height="8.821"/>
	</g>
	<g>
		<defs>
			<rect id="SVGID_118_" x="-179.506" y="95.55" width="0.774" height="8.82"/>
		</defs>
		<clipPath id="SVGID_119_">
			<use xlink:href="#SVGID_118_"  overflow="visible"/>
		</clipPath>
		
			<linearGradient id="SVGID_120_" gradientUnits="userSpaceOnUse" x1="-301.6372" y1="-245.1445" x2="-299.8149" y2="-245.1445" gradientTransform="matrix(0.4249 0 0 -0.4249 -51.3455 -4.1995)">
			<stop  offset="0" style="stop-color:#FFFFFF"/>
			<stop  offset="1" style="stop-color:#DBDAD9"/>
		</linearGradient>
		<rect x="-179.506" y="95.55" clip-path="url(#SVGID_119_)" fill="url(#SVGID_120_)" width="0.774" height="8.82"/>
	</g>
	<g>
		<defs>
			<rect id="SVGID_121_" x="-179.506" y="79.231" width="0.774" height="8.822"/>
		</defs>
		<clipPath id="SVGID_122_">
			<use xlink:href="#SVGID_121_"  overflow="visible"/>
		</clipPath>
		
			<linearGradient id="SVGID_123_" gradientUnits="userSpaceOnUse" x1="-301.6372" y1="-227.793" x2="-299.8149" y2="-227.793" gradientTransform="matrix(0.4249 0 0 -0.4249 -51.3455 -13.1448)">
			<stop  offset="0" style="stop-color:#FFFFFF"/>
			<stop  offset="1" style="stop-color:#DBDAD9"/>
		</linearGradient>
		<rect x="-179.506" y="79.232" clip-path="url(#SVGID_122_)" fill="url(#SVGID_123_)" width="0.774" height="8.821"/>
	</g>
	<g>
		<defs>
			<polygon id="SVGID_124_" points="-180.048,74.211 -179.437,74.75 -174.687,67.783 -175.3,67.244 			"/>
		</defs>
		<clipPath id="SVGID_125_">
			<use xlink:href="#SVGID_124_"  overflow="visible"/>
		</clipPath>
		
			<linearGradient id="SVGID_126_" gradientUnits="userSpaceOnUse" x1="-212.2129" y1="414.6758" x2="-210.3887" y2="414.6758" gradientTransform="matrix(2.9386 0 0 -2.9386 443.5508 1289.5469)">
			<stop  offset="0" style="stop-color:#FFFFFF"/>
			<stop  offset="1" style="stop-color:#DBDAD9"/>
		</linearGradient>
		<rect x="-180.048" y="67.244" clip-path="url(#SVGID_125_)" fill="url(#SVGID_126_)" width="5.361" height="7.507"/>
	</g>
	<g>
		<defs>
			<polygon id="SVGID_127_" points="-174.897,67.103 -174.867,67.984 -167.128,67.636 -167.16,66.754 			"/>
		</defs>
		<clipPath id="SVGID_128_">
			<use xlink:href="#SVGID_127_"  overflow="visible"/>
		</clipPath>
		
			<linearGradient id="SVGID_129_" gradientUnits="userSpaceOnUse" x1="-206.9512" y1="448.0117" x2="-205.127" y2="448.0117" gradientTransform="matrix(4.2583 0 0 -4.2583 706.3594 1975.1406)">
			<stop  offset="0" style="stop-color:#FFFFFF"/>
			<stop  offset="1" style="stop-color:#DBDAD9"/>
		</linearGradient>
		<rect x="-174.897" y="66.754" clip-path="url(#SVGID_128_)" fill="url(#SVGID_129_)" width="7.769" height="1.23"/>
	</g>
	<path fill="#3BC1CC" d="M-81.964,125.171c-3.171,0-5.743-2.929-5.743-6.541c0-3.609,2.572-6.538,5.743-6.538
		s5.743,2.929,5.743,6.538C-76.221,122.242-78.793,125.171-81.964,125.171 M-85.314,97.652c0,0-13.393,1.094-13.393,20.978
		c0,19.887,14.83,20.979,14.83,20.979h64.585V97.652H-85.314z"/>
</g>
<g>
	<rect x="266.255" y="102.076" fill="#3BC1CC" width="77.721" height="9.791"/>
	<rect x="296.146" y="81.972" fill="#3BC1CC" width="17.279" height="65.765"/>
	<rect x="266.255" y="111.867" fill="#5167B0" width="35.869" height="35.87"/>
	<rect x="308.104" y="112.185" fill="#5167B0" width="35.87" height="35.87"/>
	<polygon fill="#5167B0" points="260.275,81.972 260.275,105.888 302.124,105.888 302.124,93.065 302.124,81.972 296.146,81.972 	
		"/>
	<polygon fill="#5167B0" points="314.082,81.972 308.104,81.972 308.104,93.065 308.104,105.888 349.951,105.888 349.951,81.972 	
		"/>
	<path fill="#F2A625" d="M311.841,73.173v-0.289c0-0.986-0.327-1.895-0.875-2.625c2.029-2.06,12.588-12.229,17.108-5.866
		c5.012,7.053-11.323,13.549-11.323,13.549c27.286-0.278,20.975-17.17,15.035-22.554c-5.939-5.381-8.632-0.742-8.632-0.742
		l-13.213,14.617c-0.712-0.492-1.573-0.784-2.503-0.784h-3.724c-0.932,0-1.792,0.291-2.503,0.782l-13.215-14.616
		c0,0-2.691-4.639-8.63,0.742c-5.939,5.383-12.252,22.275,15.036,22.554c0,0-16.337-6.497-11.323-13.549
		c4.52-6.363,15.08,3.809,17.108,5.866c-0.548,0.732-0.877,1.64-0.877,2.625v0.289c0,2.432,1.972,4.402,4.403,4.402h3.724
		C309.869,77.575,311.841,75.604,311.841,73.173"/>
	<path fill="#3D3D3F" d="M389.085,89.445l-5.521,0.048c-7.696-36.248-39.942-63.53-78.451-63.53
		c-38.996,0-71.578,27.98-78.734,64.917h7.328c7.045-32.95,36.384-57.737,71.406-57.737c34.554,0,63.571,24.125,71.109,56.414
		l-5.005,0.043c-0.912,0.007-1.471,0.999-1.009,1.784l4.531,7.698l4.537,7.697c0.462,0.785,1.6,0.777,2.048-0.017l4.401-7.776
		l4.399-7.776C390.573,90.418,389.997,89.438,389.085,89.445"/>
	<path fill="#3D3D3F" d="M305.113,179.188c-34.779,0-63.951-24.447-71.254-57.057l5.42-0.046c0.912-0.008,1.473-0.999,1.012-1.784
		l-4.535-7.699l-4.535-7.696c-0.462-0.785-1.6-0.775-2.049,0.017l-4.399,7.777l-4.399,7.775c-0.449,0.794,0.129,1.772,1.04,1.768
		l5.118-0.047c7.448,36.567,39.848,64.173,78.582,64.173c39,0,71.579-27.98,78.735-64.918h-7.325
		C369.476,154.401,340.138,179.188,305.113,179.188"/>
</g>
<g>
	<polygon fill="#F2A625" points="-118.68,187.762 -133.241,169.405 -153.984,180.296 -136.693,98.534 -101.389,106.002 	"/>
	<polygon fill="#F2A625" points="-91.853,187.762 -77.292,169.405 -56.546,180.296 -73.84,98.534 -109.144,106.002 	"/>
	<path fill="#5167B0" d="M-46.158,72.563c0,31.99-25.937,57.925-57.928,57.925c-31.991,0-57.926-25.935-57.926-57.925
		c0-31.993,25.936-57.927,57.926-57.927C-72.095,14.636-46.158,40.571-46.158,72.563"/>
	<path fill="#3BC1CC" d="M-64.942,72.563c0,21.618-17.525,39.146-39.144,39.146c-21.619,0-39.145-17.528-39.145-39.146
		c0-21.62,17.526-39.144,39.145-39.144C-82.468,33.42-64.942,50.944-64.942,72.563"/>
	<polygon fill="#FFFFFF" points="-104.086,45.058 -97.257,66.069 -75.165,66.069 -93.038,79.056 -86.212,100.068 -104.086,87.082 
		-121.96,100.068 -115.133,79.056 -133.006,66.069 -110.912,66.069 	"/>
</g>
<g>
	<path fill="#3D3D3F" d="M368.542,123.12c-8.235,0-14.912,6.679-14.912,14.911c0,8.239,6.677,14.914,14.912,14.914
		c8.234,0,14.915-6.675,14.915-14.914C383.457,129.799,376.776,123.12,368.542,123.12 M371.552,141.308
		c-0.792,0.731-1.848,1.179-3.008,1.179c-1.164,0-2.218-0.447-3.01-1.179c-0.886-0.814-1.444-1.979-1.444-3.276
		c0-0.273,0.029-0.542,0.076-0.808c0.381-2.067,2.194-3.641,4.378-3.641c2.182,0,3.994,1.573,4.373,3.641
		c0.049,0.266,0.077,0.534,0.077,0.808C372.994,139.328,372.438,140.493,371.552,141.308"/>
	<path fill="#3D3D3F" d="M250.811,123.12h-0.071c-7.355,0.02-13.454,5.358-14.655,12.373c-0.144,0.828-0.223,1.673-0.223,2.538
		c0,8.239,6.678,14.914,14.914,14.914c8.233,0,14.912-6.675,14.912-14.914c0-0.865-0.077-1.71-0.219-2.538
		C264.266,128.479,258.166,123.14,250.811,123.12 M253.785,141.307c-0.793,0.729-1.848,1.176-3.008,1.176
		c-1.162,0-2.219-0.446-3.01-1.176c-0.886-0.813-1.441-1.979-1.441-3.275c0-0.273,0.027-0.545,0.071-0.808
		c0.12-0.632,0.372-1.22,0.724-1.73c0.805-1.154,2.141-1.912,3.656-1.912c1.515,0,2.849,0.758,3.651,1.912
		c0.354,0.511,0.606,1.099,0.723,1.73c0.048,0.263,0.077,0.534,0.077,0.808C255.229,139.328,254.67,140.493,253.785,141.307"/>
	<path fill="#F2A625" d="M245.419,123.121h-12.575v12.375h2.299c0.007-0.052,0.016-0.104,0.023-0.157
		C236.158,129.572,240.17,124.997,245.419,123.121"/>
	<path fill="#F2A625" d="M399.43,127.751c-0.061-6.807,0.127-13.551-0.123-20.356c-2.174-0.995-4.365-1.993-6.555-3.012
		c-1.526-0.709-3.049-1.429-4.561-2.174c-0.205-0.078-0.393-0.172-0.572-0.269c-3.094-1.66-2.995-5.833-4.175-8.788
		c-1.223-5.007-3.239-9.872-4.466-14.871c-0.775-3.168-1.231-6.387-0.966-9.731c-8.901-0.124-17.742-0.062-26.581,0h-0.084v0.017
		l-0.047-0.04v10.955l0.044,0.04c-0.028,14.528-0.147,29.071-0.004,43.599h-95.212c5.254,1.877,9.266,6.451,10.254,12.218
		c0.008,0.052,0.018,0.105,0.023,0.154h85.126c2.188-6.932,7.62-13.613,15.428-14.053c8.615-1.246,16.609,5.373,18.48,13.617
		c5.686,0.061,11.368,0.061,17.05,0.061c0-2.371,0.063-4.806,0.063-7.182C401.49,127.878,400.492,127.813,399.43,127.751
		 M363.087,101.023c-0.062-6.622-0.188-13.239,0.063-19.858c4.434,0,8.93-0.063,13.363,0.125c1.748,6.557,3.872,13.051,5.621,19.67
		C375.763,101.085,369.458,101.023,363.087,101.023 M398.714,128.249c-3.859,0.133-7.785,0.133-11.645,0.065
		c-0.063-2.327-0.063-4.59,0-6.916c3.859-0.068,7.719-0.068,11.575,0C398.779,123.725,398.779,125.987,398.714,128.249"/>
	<path fill="#3BC1CC" d="M290.221,65.416c-10.742,0-19.475,8.741-19.475,19.481c0,10.745,8.732,19.484,19.475,19.484
		c10.744,0,19.488-8.74,19.488-19.484C309.709,74.157,300.965,65.416,290.221,65.416 M302.113,77.283L291.48,87.916v0.005
		c-0.35,0.343-0.803,0.521-1.26,0.521c-0.447,0-0.902-0.178-1.258-0.521l-10.614-10.638c-0.692-0.692-0.692-1.806,0-2.504
		c0.687-0.688,1.808-0.688,2.505,0l9.375,9.388l9.385-9.388c0.688-0.688,1.807-0.688,2.5,0
		C302.807,75.477,302.807,76.591,302.113,77.283"/>
	<path fill="#5167B0" d="M348.753,65.425h27.878V54.286H232.584v66.385h116.169V65.425z M290.221,107.918
		c-12.684,0-23.023-10.329-23.023-23.021c0-12.7,10.34-23.029,23.023-23.029c12.697,0,23.033,10.329,23.033,23.029
		C313.254,97.589,302.918,107.918,290.221,107.918"/>
</g>
<g>
	<path fill="#FFFFFF" d="M-135.365,92.769c6.646-0.96,13.292-0.396,19.739,2.231c1.024,0.412,2.08,0.623,3.137,0.623h38.092
		c3.563,0,6.571,2.906,6.571,6.57c0,3.623-2.948,6.57-6.571,6.57h-28.585c-1.813,0-3.284,1.472-3.284,3.285
		c0,1.816,1.47,3.285,3.284,3.285h28.585c7.247,0,13.142-5.895,13.142-13.141c0-0.579-0.043-1.154-0.118-1.726
		c0.687-0.7,20.544-21.239,21.232-21.952c0.049-0.052,0.1-0.106,0.146-0.162c2.34-2.763,6.497-3.112,9.263-0.782
		c2.768,2.34,3.12,6.494,0.766,9.279l-29.333,35.224c-4.302,4.131-9.947,6.401-15.919,6.401h-43.257
		c-5.692,0-11.084,2.177-15.188,6.135l-1.448,1.398c-0.58-0.893-1.256-1.725-2.018-2.486l-20.179-20.179
		c-1.077-1.078-2.302-1.974-3.625-2.681C-155.914,100.762-146.948,94.453-135.365,92.769"/>
	<path fill="#3E3E40" d="M-114.361,113.814c1.281-1.285,1.281-3.366,0-4.65c-1.285-1.28-3.364-1.28-4.648,0
		c-1.282,1.284-1.282,3.365,0,4.65C-117.725,115.095-115.646,115.095-114.361,113.814"/>
	<path fill="#3E3E40" d="M-74.396,89.055h-38.092c-13.671-5.814-26.632-2.286-26.632-2.286
		c-12.723,2.669-22.813,10.567-28.249,22.112c-4.287-0.222-8.466,1.354-11.568,4.46l-10.141,10.09
		c-0.619,0.617-0.965,1.453-0.966,2.325c-0.001,0.874,0.347,1.711,0.963,2.327l37.219,37.169c0.641,0.641,1.481,0.96,2.321,0.96
		c0.841,0,1.682-0.319,2.323-0.962l10.088-10.089c3.288-3.282,4.87-7.78,4.412-12.327l3.618-3.493
		c2.871-2.768,6.646-4.292,10.625-4.292h43.257c7.748,0,15.071-2.976,20.622-8.379c0.082-0.079,0.159-0.162,0.231-0.252
		l29.433-35.342c4.676-5.535,3.979-13.843-1.562-18.525c-5.503-4.638-13.75-3.969-18.44,1.472l-3.179,3.287l-6.571,6.794
		l-9.509,9.831 M-64.192,93.936c-2.445-3.007-6.176-4.88-10.204-4.88 M-135.365,92.773c6.646-0.962,13.292-0.397,19.739,2.23
		c1.024,0.413,2.08,0.623,3.137,0.623h38.092c3.563,0,6.571,2.905,6.571,6.571c0,3.623-2.948,6.571-6.571,6.571h-28.585
		c-1.813,0-3.284,1.471-3.284,3.285s1.47,3.285,3.284,3.285h28.585c7.247,0,13.142-5.896,13.142-13.142
		c0-0.579-0.043-1.156-0.118-1.725c0.687-0.702,20.544-21.241,21.232-21.954c0.049-0.052,0.1-0.106,0.146-0.16
		c2.34-2.764,6.497-3.115,9.263-0.783c2.768,2.339,3.12,6.493,0.766,9.278l-29.333,35.227c-4.302,4.128-9.947,6.399-15.919,6.399
		h-43.257c-5.692,0-11.084,2.179-15.188,6.134l-1.449,1.398c-0.58-0.892-1.256-1.725-2.018-2.487l-20.179-20.177
		c-1.077-1.079-2.3-1.973-3.625-2.682C-155.913,100.768-146.948,94.457-135.365,92.773 M-174.296,117.993
		c3.453-3.458,8.97-3.373,12.341,0l20.183,20.181c3.381,3.377,3.443,8.9-0.001,12.343l-7.77,7.767l-32.563-32.519L-174.296,117.993z
		"/>
	<path fill="#3FC1CC" d="M-174.296,117.988c3.453-3.456,8.97-3.372,12.341,0.003l20.183,20.18c3.381,3.377,3.443,8.898-0.001,12.341
		l-7.77,7.769l-32.563-32.521L-174.296,117.988z"/>
	<path fill="#F1A725" d="M-71.058,62.267c-0.285,13.039-11.087,23.381-24.125,23.096c-13.042-0.284-23.382-11.086-23.098-24.126
		c0.284-13.039,11.087-23.381,24.125-23.096C-81.114,38.424-70.773,49.226-71.058,62.267"/>
	<path fill="#3E3E40" d="M-94.661,86.95c-0.187,0-0.37-0.001-0.558-0.004c-6.729-0.146-12.998-2.906-17.652-7.769
		c-4.656-4.861-7.139-11.245-6.992-17.974c0.147-6.729,2.905-12.999,7.768-17.654c4.863-4.654,11.231-7.143,17.976-6.991
		c13.891,0.303,24.948,11.851,24.646,25.744C-69.775,76.006-81.021,86.95-94.661,86.95 M-94.682,39.716
		c-5.702,0-11.093,2.163-15.226,6.118c-4.251,4.07-6.663,9.552-6.792,15.437c-0.128,5.884,2.043,11.466,6.113,15.719
		c4.07,4.251,9.553,6.663,15.436,6.791c0.164,0.005,0.326,0.006,0.489,0.006c11.928,0.001,21.76-9.571,22.021-21.555
		c0.266-12.147-9.403-22.245-21.549-22.51C-94.354,39.719-94.518,39.716-94.682,39.716"/>
	<path fill="#3E3E40" d="M-101.396,47.844l15.624,0.341l-0.002,0.039c-0.955,1.59-1.498,2.44-1.627,2.553l-4.16-0.09
		c0.559,0.78,0.928,1.714,1.108,2.805l4.447,0.097c0.051,0.015,0.076,0.041,0.074,0.078c-1.032,1.666-1.562,2.505-1.588,2.517
		l-2.875-0.063c-0.084,0.854-0.471,1.895-1.162,3.119c-0.935,1.221-1.807,2.008-2.621,2.36c-1.526,0.785-2.979,1.163-4.358,1.132
		v0.039c-0.005,0.114,0.323,0.626,0.981,1.535l7.475,10.73l-0.01,0.5c-0.001,0.051-0.028,0.076-0.079,0.075l-3.391-0.074
		c-5.935-8.198-8.899-12.315-8.899-12.354l0.054-2.453l0.041-0.096c0.534,0.102,1.167,0.16,1.895,0.175
		c3.412,0.075,5.567-1.137,6.466-3.636c0.135-0.367,0.206-0.744,0.217-1.127l-9.279-0.203c-0.051-0.001-0.076-0.033-0.074-0.096
		c1.059-1.666,1.602-2.498,1.627-2.498l7.381,0.163l0.001-0.04c-0.415-0.98-1.216-1.753-2.405-2.316
		c-0.862-0.337-1.638-0.515-2.328-0.53l-4.12-0.09l0.002-0.096C-101.949,48.677-101.421,47.844-101.396,47.844"/>
</g>
<g>
	<rect x="287.394" y="29.276" fill="#F1A725" width="27.924" height="63.988"/>
	<path fill="#3E3E40" d="M317.227,95.173h-31.739V27.368h31.739V95.173z M289.304,91.356h24.104V31.185h-24.104V91.356z"/>
	<path fill="#F1A725" d="M307.68,66.653c0.307,14.028,11.925,25.151,25.952,24.846c14.028-0.305,25.153-11.927,24.848-25.953
		c-0.308-14.029-11.927-25.152-25.954-24.846C318.498,41.006,307.374,52.626,307.68,66.653"/>
	<path fill="#3E3E40" d="M305.978,66.69C305.652,51.748,317.544,39.325,332.488,39c7.255-0.166,14.107,2.512,19.338,7.518
		c5.229,5.007,8.196,11.752,8.354,18.991c0.157,7.239-2.514,14.106-7.521,19.335c-5.008,5.232-11.751,8.2-18.99,8.357
		c-0.201,0.003-0.398,0.006-0.6,0.006C318.396,93.208,306.3,81.432,305.978,66.69 M332.563,42.402
		c-13.068,0.285-23.467,11.147-23.182,24.214c0.281,12.894,10.858,23.188,23.691,23.187c0.175,0,0.35-0.001,0.522-0.005
		c6.331-0.138,12.229-2.733,16.606-7.307c4.379-4.573,6.713-10.579,6.576-16.909c-0.138-6.328-2.732-12.226-7.307-16.604
		c-4.444-4.256-10.244-6.581-16.378-6.581C332.917,42.397,332.739,42.398,332.563,42.402"/>
	<path fill="#3FC1CC" d="M216.858,58.814c9.63-0.187,19.271-0.09,28.899,0c2.249-0.187,4.21,1.497,4.771,3.553
		c7.109,24.882,13.375,50.044,20.671,74.826c31.988,0.376,63.974-0.094,95.963,0.188c6.452,0.093,6.174,10.384-0.185,10.196
		c-32.928,0.188-65.756,0-98.681,0.094c-2.991,0.372-5.703-1.78-6.262-4.681c-6.735-24.692-13.376-49.289-20.299-73.888
		c-8.513-0.749-17.21,0.374-25.722-0.56C211.246,67.14,211.9,59.283,216.858,58.814"/>
	<path fill="#3FC1CC" d="M364.919,128.87c4.862-18.612,9.446-37.413,14.218-56.027c1.12-2.899-0.189-7.105-3.647-7.387
		c-37.036-0.374-73.985-0.094-111.025-0.187c-3.741-0.47-6.735,3.646-5.331,7.106c5.055,18.986,9.826,37.976,14.968,56.962
		c0.561,2.898,3.552,4.02,6.171,3.835h78.567C361.553,133.357,364.451,131.771,364.919,128.87 M308.61,115.026
		c6.645-0.187,13.47-0.096,20.111-0.096c0.095,2.619,0,5.241-0.652,7.767c-6.46,0.093-12.908,0.093-19.363,0.093
		C308.52,120.267,307.49,117.271,308.61,115.026 M306.835,95.946c7.668-0.934,15.527-0.372,23.197-0.28
		c0.096,2.898-0.095,5.8-0.469,8.603c-7.39,0.376-14.962,0.844-22.259-0.279C306.929,101.372,306.835,98.659,306.835,95.946
		 M295.239,85.286c-7.298,0.093-14.688,0.187-21.982,0c-1.213-3.182-1.962-6.453-2.525-9.727c8.138-0.188,16.274-0.188,24.317,0
		C295.239,78.738,296.267,82.291,295.239,85.286 M296.734,104.554c-5.984,0-12.064,0.185-18.049-0.19
		c-2.06-2.148-1.967-5.892-2.714-8.789c6.827,0,13.655-0.283,20.386,0.092C296.826,98.659,297.014,101.559,296.734,104.554
		 M297.952,122.79c-5.053,0-10.106,0.189-15.06-0.187c-0.934-2.525-1.496-5.054-2.06-7.577c5.608-0.096,11.226-0.187,16.927,0
		C298.045,117.55,298.136,120.172,297.952,122.79 M330.688,85.286c-8.231,0.093-16.371,0.187-24.602-0.092
		c-0.276-3.183-0.563-6.455-0.563-9.635c8.608-0.188,17.213-0.094,25.817-0.094C331.526,78.738,331.341,82.104,330.688,85.286
		 M339.385,115.026c6.172-0.187,12.253-0.096,18.426-0.096c-0.375,2.619-1.029,5.241-1.964,7.767c-5.706,0.187-11.41,0.093-17.117,0
		C338.637,120.172,338.819,117.55,339.385,115.026 M340.602,95.854c7.293-0.746,14.682-0.279,22.069-0.187
		c-0.468,2.898-1.118,5.8-2.148,8.603c-6.826,0.657-13.654,0.284-20.482,0.187C339.947,101.559,340.133,98.751,340.602,95.854
		 M365.198,85.286c-7.947,0.187-15.898,0.093-23.849,0.093c-0.095-3.275,0.185-6.457,0.467-9.634
		c8.606-0.56,17.207-0.187,25.909-0.281C367.163,78.833,366.416,82.198,365.198,85.286"/>
	<path fill="#3E3E40" d="M349.202,151.597c5.804,1.872,9.729,8.512,8.049,14.407c-1.404,6.077-7.951,10.379-14.031,9.072
		c-6.547-1.125-11.32-8.229-9.636-14.687C334.896,153.654,342.751,149.075,349.202,151.597"/>
	<path fill="#3E3E40" d="M287.57,151.223c4.768,1.031,8.884,5.146,9.443,10.104c1.312,7.016-4.955,14.028-11.971,13.938
		c-6.735,0.186-12.625-6.082-12.158-12.819C273.073,155.339,280.551,149.351,287.57,151.223"/>
</g>
<g>
	<path fill="#F1A725" d="M-111.979,167.47c-35.791-0.003-65.546-29.127-66.327-64.924c-0.795-36.586,28.321-67,64.907-67.798
		c0.493-0.011,0.981-0.016,1.473-0.016c35.793,0,65.548,29.124,66.326,64.922c0.799,36.588-28.317,67.002-64.904,67.8
		c-0.492,0.01-0.98,0.016-1.472,0.016H-111.979z"/>
	<path fill="#F1A725" d="M-171.672,102.403c0.719,32.981,28.039,59.135,61.021,58.417c32.983-0.719,59.136-28.041,58.416-61.02
		c-0.719-32.982-28.037-59.138-61.02-58.419C-146.236,42.102-172.391,69.421-171.672,102.403"/>
	<path fill="#3E3E40" d="M-97.177,187.281c-3.323,0-3.776-0.581-9.328-7.708c-2.678-3.441-6.668-8.598-11.971-15.476
		c-10.592-13.736-26.422-34.343-47.495-61.816l-1.37-1.788v-9.318h13.215c24.531,0,31.915-9.691,34.853-18.008h-43.697
		c-4.275,0-7.499-3.224-7.499-7.498v-10.11l0.049-0.399c0.474-3.879,3.605-6.695,7.449-6.695h40.155
		c-1.111-1.337-2.407-2.563-3.895-3.69c-6.59-3.418-12.546-5.15-17.708-5.15h-18.552c-4.275,0-7.499-3.224-7.499-7.498v-10.11
		l0.049-0.4c0.474-3.881,3.605-6.694,7.449-6.694h102.444l0.41,0.049c3.868,0.482,6.677,3.615,6.677,7.447v9.708
		c0,4.274-3.224,7.498-7.498,7.498h-23.888c1.517,2.607,2.861,5.556,4.03,8.84h20.269l0.41,0.051
		c3.868,0.484,6.677,3.614,6.677,7.448v9.706c0,4.274-3.224,7.498-7.498,7.498H-79.24c-2.152,10.582-9.478,20.756-21.859,30.326
		l-0.362,0.276l-0.396,0.228c-7.077,4.059-12.968,6.947-17.876,8.743l50.01,64.779v9.762H-97.177z"/>
	<path fill="#3FC1CC" d="M-162.97,21.556h102.033c0.574,0.072,0.862,0.359,0.862,0.863v9.705c0,0.578-0.288,0.863-0.862,0.863
		h-38.397v0.864c5.463,2.95,9.708,8.989,12.727,18.119l0.434,3.129h25.237c0.574,0.072,0.862,0.361,0.862,0.863v9.707
		c0,0.577-0.288,0.861-0.862,0.861h-24.269c0,10.859-6.651,21.43-19.953,31.711c-11.794,6.761-20.17,10.14-25.13,10.14
		c0,0.287-0.288,0.432-0.862,0.432l54.791,70.971v0.86h-20.816c-0.215,0-21.393-27.467-63.528-82.402V97.81h6.579
		c23.298,0,37.282-8.375,41.958-25.13c0.286-2.011,0.431-3.629,0.431-4.854v-1.295h-51.232c-0.576,0-0.863-0.285-0.863-0.861v-9.707
		c0.07-0.574,0.358-0.863,0.863-0.863h50.802c-1.727-6.542-5.394-11.863-11.002-15.963c-7.767-4.098-14.849-6.148-21.248-6.148
		h-18.552c-0.576,0-0.863-0.286-0.863-0.863v-9.705C-163.762,21.845-163.474,21.556-162.97,21.556"/>
	<rect x="-163.831" y="55.101" fill="#FFFFFF" width="103.757" height="11.432"/>
</g>
<g>
	<path fill="#6D83C1" d="M230.608,118.012c0-2.859,0.074-5.588-0.011-8.311c-0.349-10.911,7.591-21.789,20.697-23.896
		c13.006-2.091,26.842,8.342,27.287,22.236c0.084,2.642,0.143,5.286,0.119,7.926c-0.014,1.344,0.097,2.356,1.725,2.73
		c2.019,0.465,2.793,2.104,2.796,3.991c0.017,11.099,0.028,22.2-0.104,33.296c-0.035,2.907-1.503,4.117-4.373,4.12
		c-16.034,0.025-32.068,0.022-48.102,0.002c-3.023-0.005-4.662-1.503-4.68-4.488c-0.062-11.01-0.012-22.023-0.045-33.036
		C225.91,119.467,228.311,118.817,230.608,118.012 M254.451,118.35c4.131,0,8.266-0.093,12.391,0.038
		c2.11,0.065,2.834-0.735,2.713-2.764c-0.143-2.366,0.007-4.748-0.178-7.107c-0.584-7.413-6.385-13.353-13.263-13.698
		c-8.239-0.417-14.699,4.279-16.084,11.993c-0.49,2.738-0.175,5.607-0.472,8.392c-0.283,2.669,0.885,3.283,3.295,3.188
		C246.713,118.236,250.586,118.35,254.451,118.35 M246.686,135.109c0.58,1.32,0.824,3.025,1.808,3.895
		c2.393,2.111,2.937,4.658,2.798,7.59c-0.051,1.051-0.091,2.122,0.033,3.163c0.232,1.947,1.512,3.071,3.369,3.051
		c1.746-0.022,2.97-1.101,3.082-2.985c0.108-1.844-0.126-3.73,0.197-5.526c0.262-1.447,0.836-3.039,1.783-4.122
		c2.418-2.767,3.065-6.343,1.303-9.444c-1.535-2.703-5.094-4.122-8.182-3.264C249.217,128.481,247.061,131.252,246.686,135.109"/>
	<path fill="#3D3D3F" d="M293.201,143.045v-6.521h3.067c27.05,0,54.1,0.003,81.147-0.005c1.058,0,2.122,0.027,3.166-0.096
		c4.218-0.503,6.015-2.304,6.024-6.542c0.054-24.055,0.056-48.109-0.002-72.163c-0.011-4.285-2.118-6.279-6.428-6.281
		c-37.447-0.03-74.894-0.032-112.339,0c-4.367,0.002-6.391,2.163-6.422,6.592c-0.037,5.197-0.008,10.396-0.008,15.595v2.69
		c-2.395-0.358-4.463-0.668-6.375-0.954c0-7.16-0.514-14.29,0.162-21.304c0.549-5.708,6.104-9.432,12.277-9.437
		c25.111-0.023,50.223-0.012,75.333-0.012c12.071,0,24.145,0.121,36.213-0.039c9.182-0.12,14.33,4.762,14.38,13.733
		c0.127,23.612,0.149,47.227-0.01,70.839c-0.065,9.489-4.648,13.98-14.074,14.016c-28.105,0.104-56.213,0.041-84.319,0.035
		C294.477,143.191,293.961,143.111,293.201,143.045"/>
	<path fill="#6ECCDA" d="M351.237,121.201c-8.256,6.591-15.287,3.598-19.04-0.444c-4.235-4.562-4.211-12.192-0.172-16.69
		c5.071-5.655,11.663-5.904,19.063-0.721c8.51-5.173,15.039-4.7,19.755,1.433c3.679,4.784,3.165,12.232-1.388,16.618
		C365.292,125.41,358.131,127.163,351.237,121.201"/>
	<rect x="272.125" y="78.612" fill="#3D3D3F" width="81.072" height="5.409"/>
	<rect x="305.424" y="63.285" fill="#3D3D3F" width="47.736" height="5.269"/>
	<rect x="272.103" y="63.802" fill="#3D3D3F" width="19.372" height="5.01"/>
</g>
<g>
	<path fill="#6ECCDA" d="M-124.107,133.604c1.616-4.225,3.133-8.086,4.562-11.98c0.496-1.352,1.348-2.166,2.709-2.498
		c4.555-1.111,8.651-3.17,12.376-5.988c1.128-0.855,2.281-1.143,3.598-0.404c10.151,5.678,20.32,11.33,30.463,17.025
		c2.86,1.609,4.846,4.098,6.467,6.895c3.587,6.193,5.451,12.988,6.916,19.92c0.278,1.307,0.395,2.658,0.762,3.939
		c0.621,2.154,0.052,3.973-1.229,5.707c-2.949,3.992-6.832,6.857-11.141,9.178c-7.939,4.273-16.531,6.582-25.362,8.021
		c-14.62,2.385-29.332,2.746-44.098,1.813c-9.521-0.602-18.939-1.834-28.126-4.482c-6.916-1.994-13.53-4.662-19.276-9.133
		c-2.459-1.912-4.724-4.041-6.16-6.852c-0.432-0.846-0.704-1.977-0.553-2.891c1.372-8.322,3.433-16.447,7.293-24.014
		c1.772-3.471,4.052-6.494,7.553-8.443c9.966-5.545,19.921-11.105,29.878-16.662c1.174-0.654,2.283-0.605,3.365,0.211
		c3.882,2.92,8.132,5.078,12.871,6.234c1.266,0.307,2.015,1.15,2.471,2.381c1.381,3.719,2.827,7.414,4.251,11.119
		C-124.442,132.896-124.344,133.084-124.107,133.604 M-107.212,149.023c7.684,0,15.21,0.008,22.736-0.031
		c0.262,0,0.733-0.434,0.746-0.684c0.074-1.369,0.034-2.742,0.034-4.146h-23.517V149.023z"/>
	<path fill="#6D83C1" d="M-102.14,106.393c-1.849,1.385-3.513,2.73-5.275,3.934c-3.81,2.596-7.964,4.441-12.449,5.555
		c-4.414,1.094-8.645,0.291-12.745-1.307c-10.619-4.139-18.431-11.385-23.563-21.557c-0.388-0.767-0.399-1.354-0.067-2.181
		c0.506-1.259,0.97-2.641,0.984-3.977c0.089-8.181,0.138-16.365-0.024-24.543c-0.036-1.755-0.788-3.586-1.584-5.199
		c-0.519-1.05-0.824-1.917-0.635-3.08c0.701-4.352,1.713-8.587,3.87-12.493c2.553-4.62,6.418-7.659,11.263-9.562
		c5.688-2.232,11.655-2.778,17.685-2.808c6.163-0.031,12.278,0.421,18.149,2.534c6.154,2.216,10.73,6.222,12.985,12.394
		c1.258,3.438,1.889,7.111,2.706,10.701c0.129,0.574-0.097,1.366-0.428,1.888c-1.17,1.846-1.84,3.8-1.837,5.998
		c0.016,7.859-0.017,15.717,0.03,23.575c0.007,1.36,0.317,2.715,0.537,4.482c-4.629,0.45-9.253,0.914-13.88,1.341
		c-1.012,0.094-2.035,0.042-3.051,0.094c-1.76,0.088-3.292-0.123-4.903-1.212c-3.388-2.291-13.085-2.123-16.637-0.053
		c-3.126,1.821-4.89,5.569-4.403,9.361c0.465,3.626,3.206,7.142,6.859,7.632c3.712,0.498,7.532,0.209,11.305,0.166
		c0.743-0.01,1.611-0.289,2.198-0.736c1.252-0.951,2.611-0.979,4.061-0.959C-108.147,106.424-105.304,106.393-102.14,106.393"/>
	<path fill="#3D3D3F" d="M-84.407,91.938c-0.589-0.331-1.219-0.605-1.763-1.001c-1.809-1.317-2.36-3.178-2.35-5.341
		c0.031-7.396,0.012-14.795,0.015-22.191c0-0.416,0.047-0.83,0.068-1.245c0.082-1.559,0.763-2.798,1.888-3.875
		c0.367-0.352,0.692-1.016,0.643-1.495c-0.571-5.344-1.612-10.587-3.808-15.533c-2.949-6.644-7.962-11.094-14.694-13.683
		c-6.543-2.517-13.403-3.012-20.305-2.989c-5.549,0.019-11.056,0.521-16.437,2.101c-9.609,2.825-16.048,8.912-18.975,18.477
		c-1.06,3.467-1.532,7.115-2.254,10.685c-0.217,1.077-0.121,1.976,0.905,2.782c1.307,1.026,1.675,2.611,1.677,4.239
		c0.009,7.767,0.053,15.534-0.019,23.3c-0.034,3.691-2.348,5.885-6.054,5.958c-2.45,0.045-4.9,0.044-7.352,0.001
		c-3.782-0.07-6.112-2.442-6.119-6.217c-0.015-7.628-0.016-15.257,0.001-22.885c0.007-3.727,2.314-6.029,6.051-6.115
		c2.748-0.063,2.734-0.064,3.101-2.867c0.743-5.65,1.938-11.171,4.355-16.389c4.184-9.032,11.088-14.983,20.446-18.099
		c8.127-2.705,16.536-3.324,25.043-2.964c6.31,0.267,12.518,1.142,18.47,3.319c10.812,3.956,17.884,11.59,21.221,22.514
		c1.327,4.344,1.927,8.914,2.778,13.398c0.152,0.799,0.364,1.14,1.192,1.099c0.828-0.042,1.665-0.032,2.491,0.044
		c2.976,0.272,5.188,2.506,5.212,5.495c0.06,8,0.06,15.998,0.002,23.995c-0.021,3.304-2.466,5.647-5.948,5.63
		c-1.581-0.01-2.608,0.476-3.657,1.626c-3.465,3.801-8.16,5.222-12.976,6.318c-7.312,1.666-14.748,1.791-22.196,1.716
		c-0.9-0.008-1.581,0.205-2.369,0.775c-0.95,0.684-2.241,1.1-3.424,1.207c-2.064,0.188-4.157,0.082-6.236,0.043
		c-3.057-0.057-5.126-2.045-5.113-4.853c0.013-2.797,2.12-4.755,5.16-4.773c2.127-0.013,4.255,0.007,6.381-0.003
		c1.586-0.008,2.836,0.623,3.883,1.803c0.326,0.369,0.881,0.752,1.336,0.757c7.772,0.107,15.544,0.021,23.125-1.99
		c2.278-0.605,4.462-1.569,6.69-2.368C-84.348,92.208-84.377,92.075-84.407,91.938"/>
	<path fill="#6D83C1" d="M-107.212,149.023v-4.861h23.517c0,1.404,0.04,2.777-0.034,4.146c-0.013,0.25-0.484,0.684-0.746,0.684
		C-92.002,149.031-99.528,149.023-107.212,149.023"/>
</g>
<g>
	<path d="M372.84,76.091c0,13.256,0.926,26.597-0.246,39.751c-1.311,14.689-11.36,25.622-21.438,35.606
		c-13.836,13.71-30.005,24.319-46.78,34.014c-1.478,0.856-4.22,1.108-5.597,0.306c-21.025-12.261-41.374-25.443-56.762-44.844
		c-8.271-10.431-12.69-22.109-12.483-35.677c0.323-21.241,0.2-42.495-0.003-63.74c-0.045-4.675,1.162-6.311,6.095-5.981
		c23.014,1.542,43.913-4.328,62.083-18.85c2.496-1.995,4.438-2.146,6.995-0.091c18.311,14.708,39.401,20.489,62.617,18.955
		c4.201-0.279,5.748,0.885,5.659,5.264c-0.241,11.758-0.085,23.523-0.085,35.286C372.662,76.09,373.074,76.091,372.84,76.091
		 M235.154,41.169v6.895c0,18.768,0.35,37.543-0.121,56.299c-0.322,12.831,3.719,23.765,11.59,33.545
		c14.277,17.738,32.996,29.943,52.197,41.483c1.254,0.754,3.782,0.64,5.089-0.135c17.969-10.652,35.292-22.212,49.278-38.013
		c9.493-10.723,14.833-22.859,14.329-37.702c-0.633-18.554-0.152-37.148-0.152-55.725v-6.048c-1.132-0.259-1.662-0.501-2.185-0.486
		c-22.665,0.627-43.457-4.854-61.852-18.565c-0.982-0.734-3.482-0.269-4.826,0.465c-5.628,3.077-10.865,6.936-16.648,9.654
		C267.373,39.641,251.913,41.922,235.154,41.169"/>
	<path fill="#6D83C1" d="M244.035,48.727c20.659,1.238,38.77-3.275,54.785-15.385c1.094-0.83,3.979-0.698,5.138,0.174
		c15.886,11.945,33.821,16.406,54.161,15.217c0.118,1.895,0.345,3.862,0.349,5.831c0.029,15.361-0.729,30.768,0.216,46.07
		c1.044,16.894-5.435,30.282-17.578,40.654c-11.612,9.92-24.495,18.363-36.986,27.219c-1.275,0.903-4.117,0.933-5.514,0.127
		c-14.961-8.663-29.238-18.299-41.074-31.102c-9.1-9.844-14.232-21.013-13.648-34.926c0.658-15.716,0.152-31.478,0.152-47.219
		V48.727z"/>
	<path fill="#6ECCDA" d="M329.617,101c0,15.628-12.671,28.302-28.303,28.302S273.013,116.628,273.013,101
		c0-15.631,12.67-28.303,28.302-28.303S329.617,85.369,329.617,101"/>
	<path fill="#FFFFFF" d="M301.443,106.163c7.232-8.165,14.02-15.831,20.811-23.491c0.955-1.077,10.614-11.919,11.601-12.97
		c2.108-2.251,4.572-3.239,7.175-1.063c2.785,2.326,2.25,5.144,0.153,7.608c-4.146,4.872-17.146,19.385-21.392,24.175
		c-4.673,5.268-9.354,10.524-14.042,15.781c-2.798,3.136-5.693,3.344-8.538,0.11c-4.967-5.646-9.911-11.313-14.797-17.029
		c-2.168-2.536-2.514-5.391,0.237-7.601c2.757-2.216,5.369-1.117,7.52,1.393C293.803,97.318,297.461,101.543,301.443,106.163"/>
</g>
<g>
	<path fill="#6D83C1" d="M266.775,100.687c0-24.053,0.002-48.107-0.002-72.159c0-4.403,1.414-8.157,4.998-10.913
		c2.226-1.711,4.774-2.56,7.563-2.563c23.961-0.015,47.919-0.031,71.877,0.004c7.228,0.012,12.567,5.544,12.627,12.978
		c0.047,5.896,0.009,11.792,0.009,17.688c0,42.348-0.001,84.699,0.003,127.049c0.003,4.398-1.374,8.163-4.947,10.936
		c-2.22,1.723-4.759,2.6-7.548,2.603c-24.005,0.021-48.011,0.041-72.017-0.003c-7.306-0.015-12.555-5.656-12.559-13.323
		c-0.012-20.402-0.004-40.806-0.004-61.208V100.687z M354.329,36.215h-78.05v110.465h78.05V36.215z M315.311,22.627
		c-5.607,0-11.215-0.003-16.823,0.001c-1.831,0.001-2.562,0.867-2.56,2.994c0,2.116,0.749,3.021,2.572,3.022
		c11.217,0.01,22.432,0.01,33.648,0c1.843-0.002,2.555-0.875,2.553-3.034c0-2.15-0.706-2.981-2.564-2.982
		C326.529,22.624,320.92,22.627,315.311,22.627 M315.328,158.155c-4.4-0.009-7.941,3.496-7.957,7.886
		c-0.016,4.339,3.57,7.931,7.928,7.938c4.364,0.007,7.942-3.552,7.952-7.91C323.26,161.684,319.739,158.164,315.328,158.155"/>
	<rect x="276.279" y="36.214" fill="#6ECCDA" width="78.05" height="110.466"/>
	<path fill="#FFFFFF" d="M315.311,22.627c5.609,0,11.219-0.003,16.826,0.001c1.858,0.001,2.564,0.831,2.564,2.983
		c0.002,2.159-0.71,3.032-2.553,3.033c-11.217,0.01-22.432,0.01-33.648,0c-1.823-0.001-2.572-0.907-2.572-3.022
		c-0.002-2.129,0.729-2.992,2.56-2.994C304.096,22.624,309.703,22.627,315.311,22.627"/>
	<path fill="#FFFFFF" d="M315.328,158.155c4.411,0.009,7.932,3.528,7.923,7.913c-0.01,4.358-3.588,7.917-7.952,7.91
		c-4.357-0.007-7.943-3.599-7.928-7.938C307.387,161.651,310.928,158.146,315.328,158.155"/>
</g>
<g>
	<path fill="#040304" d="M230.416,71.549h-0.434c-5.58,0-10.129,4.564-10.129,10.131v44.101c0,5.584,4.549,10.136,10.129,10.136
		h0.441c5.579,0,10.129-4.565,10.129-10.136V81.68C240.546,76.113,235.99,71.549,230.416,71.549"/>
	<path fill="#040304" d="M245.401,142.803c0,5.123,4.187,9.295,9.31,9.295h9.947v23.821c0,5.593,4.565,10.145,10.132,10.145h0.436
		c5.584,0,10.14-4.556,10.14-10.145v-23.821h13.906v23.821c0,5.593,4.575,10.145,10.146,10.145h0.425
		c5.588,0,10.138-4.556,10.138-10.145v-23.821h9.955c5.115,0,9.301-4.172,9.301-9.295V73.165h-93.835V142.803z"/>
	<path fill="#040304" d="M315.692,30.933l7.9-12.196c0.508-0.769,0.283-1.821-0.494-2.324c-0.767-0.505-1.82-0.294-2.319,0.497
		l-8.195,12.616c-6.146-2.518-13.01-3.931-20.258-3.931c-7.257,0-14.108,1.414-20.268,3.931l-8.176-12.616
		c-0.502-0.791-1.563-1.002-2.338-0.497c-0.775,0.503-1.002,1.555-0.492,2.324l7.907,12.196
		c-14.259,6.991-23.871,20.157-23.871,35.267c0,0.928,0.059,1.843,0.138,2.753h94.206c0.083-0.91,0.131-1.825,0.131-2.753
		C339.565,51.09,329.941,37.924,315.692,30.933 M270.486,52.776c-2.504,0-4.538-2.017-4.538-4.526c0-2.513,2.034-4.525,4.538-4.525
		c2.518,0,4.535,2.012,4.535,4.525C275.021,50.759,272.991,52.776,270.486,52.776 M314.161,52.776c-2.505,0-4.534-2.017-4.534-4.526
		c0-2.513,2.029-4.525,4.534-4.525c2.509,0,4.529,2.012,4.529,4.525C318.69,50.759,316.67,52.776,314.161,52.776"/>
	<path fill="#040304" d="M354.655,71.549h-0.418c-5.582,0-10.145,4.564-10.145,10.131v44.101c0,5.584,4.569,10.136,10.145,10.136
		h0.427c5.589,0,10.127-4.565,10.127-10.136V81.68C364.791,76.113,360.235,71.549,354.655,71.549"/>
</g>
<g>
	<path fill="#010101" d="M-167.628,75.363c-14.23,24.696-5.186,62.179,10.554,84.903c7.858,11.361,15.811,21.559,26.703,21.559
		c0.208,0,0.41,0,0.624-0.01c5.116-0.206,8.819-1.781,12.392-3.304c4.015-1.714,8.169-3.484,14.682-3.484
		c6.195,0,10.151,1.714,13.975,3.371c3.771,1.627,7.651,3.319,13.386,3.211c12.273-0.234,19.808-11.237,26.453-20.945
		c6.937-10.134,10.416-19.98,11.591-23.739l0.047-0.146c0.224-0.674-0.092-1.403-0.733-1.695c-0.017-0.01-0.085-0.036-0.1-0.044
		c-2.163-0.885-21.118-9.29-21.316-32.209c-0.187-18.62,14.221-28.485,17.107-30.271l0.136-0.087
		c0.313-0.199,0.53-0.517,0.604-0.885c0.075-0.362,0-0.746-0.214-1.053c-9.942-14.551-25.182-16.743-31.315-17.006
		c-0.892-0.09-1.812-0.129-2.733-0.129c-7.206,0-14.109,2.719-19.656,4.906c-3.827,1.511-7.135,2.814-9.417,2.814
		c-2.563,0-5.885-1.321-9.738-2.848c-5.148-2.046-10.986-4.363-17.166-4.363c-0.146,0-0.292,0.004-0.436,0.009
		C-146.569,54.129-160.142,62.345-167.628,75.363"/>
	<path fill="#010101" d="M-73.043,13.481c-8.699,0.351-19.138,5.711-25.373,13.016c-5.304,6.144-10.482,16.382-9.116,26.704
		c0.083,0.647,0.61,1.144,1.257,1.196c0.589,0.043,1.186,0.069,1.787,0.069c8.506,0,17.684-4.708,23.949-12.285
		c6.599-8.004,9.934-18.271,8.924-27.472C-71.696,13.985-72.328,13.45-73.043,13.481"/>
</g>
<g>
	<path fill="#010101" d="M336.938,58.522c0-23.358-18.74-42.097-42.097-42.097c-23.357,0-42.098,18.739-42.098,42.097
		c0,23.084,18.74,41.82,42.098,41.82C318.198,100.342,336.938,81.606,336.938,58.522 M263.608,58.522
		c0-17.112,14.122-31.236,31.233-31.236c17.112,0,31.23,14.124,31.23,31.236c0,17.108-14.118,30.96-31.23,30.96
		C277.73,89.482,263.608,75.63,263.608,58.522"/>
	<path fill="#010101" d="M227.758,160.094c-4.889,11.951,3.803,25.257,16.842,25.257h102.658c13.036,0,21.729-13.306,16.839-25.257
		c-12.765-30.42-38.565-51.058-68.168-51.058C266.053,109.036,240.251,129.674,227.758,160.094 M295.929,119.896
		c24.441,0,46.711,17.112,58.118,44.544c1.359,3.261,0,5.972-0.541,6.785c-0.543,1.092-2.715,3.261-6.248,3.261H244.6
		c-3.533,0-5.435-2.169-6.249-3.261c-0.542-1.082-1.901-3.524-0.542-6.785C249.215,137.009,271.484,119.896,295.929,119.896"/>
</g>
<g>
	<path fill="#020202" d="M-143.893,141.892c3.965-0.493,7.932,0.496,11.4,1.986c3.967,1.979,7.435,5.45,9.417,9.416
		c1.984,4.461,2.479,9.415,0.993,14.373c-1.488,4.462-4.461,7.93-7.932,10.409c-2.974,1.986-7.435,2.976-10.906,2.976
		c-4.956,0-10.409-1.982-13.879-5.455c-2.479-2.479-4.461-5.947-5.453-9.415c-0.991-4.462-0.495-9.416,1.488-13.385
		C-156.286,146.85-150.336,142.388-143.893,141.892 M-143.398,150.814c-3.965,0.993-7.435,3.965-8.426,7.93
		c-0.991,4.466,0.991,8.923,4.461,11.402c2.479,1.485,5.453,1.982,8.923,1.485c3.965-1.485,7.435-5.45,7.435-9.415
		c0.495-3.965-1.982-7.438-4.956-9.42C-138.439,150.814-140.919,150.814-143.398,150.814"/>
	<path fill="#020202" d="M-69.044,141.892c4.461-0.497,8.923,0.496,12.391,2.479c3.968,2.479,6.941,5.947,8.429,10.409
		c1.486,3.969,1.486,7.934,0.495,11.898c-0.991,4.458-3.965,8.427-7.436,10.901c-3.471,2.479-7.93,3.97-11.896,3.97
		c-4.462,0-8.921-1.49-12.392-4.462c-3.967-2.976-6.446-7.93-7.435-12.396c-0.991-4.457,0.494-8.923,2.477-12.387
		C-80.94,146.353-75.488,142.388-69.044,141.892 M-68.548,151.311c-3.47,0.994-6.443,3.469-7.932,6.937
		c-0.991,2.977-0.498,5.952,0.991,8.431c1.488,2.479,4.462,4.458,7.436,4.958c3.963,0.989,8.426-1.489,10.411-4.958
		c1.485-1.986,1.982-4.461,1.485-7.437c-0.497-2.972-2.479-5.451-4.956-7.438C-63.095,150.814-66.07,150.814-68.548,151.311"/>
	<path fill="#020202" d="M-43.765,40.775h-125.411c-0.989-5.453-1.98-10.908-3.466-16.855c-0.497-1.984-2.479-3.47-4.462-3.47
		h-22.801c-0.992,0-2.479,0.497-3.472,1.486c-1.484,1.488-1.484,3.967-1.484,5.951c0.496,1.484,2.477,2.477,3.964,2.477h19.332
		c0,0.495,0,0.994,0.497,1.486c5.453,25.775,10.409,51.551,15.862,77.822c0.495,2.479,1.486,5.454,2.974,8.426
		c1.488,3.965,3.965,7.438,7.435,10.409c3.965,3.473,8.426,5.455,13.877,6.444c2.481,0.496,5.455,0.496,7.934,0.496h79.804
		c1.488,0,2.479-0.496,3.471-1.485c1.487-1.49,1.982-4.462,0.991-5.947c-0.991-1.486-2.479-1.987-4.462-1.987h-82.778
		c-2.479,0.501-4.461-0.492-6.444-0.988c-4.462-1.486-7.438-5.455-9.42-9.42h85.754c2.479,0,5.452,0,7.932-0.493
		c3.471-0.496,6.444-1.485,9.418-3.472c2.974-2.479,5.45-6.444,6.443-10.409c0.497-1.485,0.497-3.965,0.991-5.45
		c1.488-16.359,2.974-32.219,4.46-48.575C-38.807,43.251-41.286,40.775-43.765,40.775 M-47.729,53.66l-3.965,39.159
		c0,0-0.497,12.391-12.394,12.391h-90.213c0,0-1.488-0.492-1.984-2.479c-0.495-1.979-10.903-52.54-10.903-52.54h116.98
		C-50.209,50.191-47.729,50.191-47.729,53.66"/>
	<path fill="#020202" d="M-59.13,93.812c0,2.479-1.984,4.458-4.462,4.458h-56.013c-2.477,0-4.463-1.979-4.463-4.458
		s1.986-4.461,4.463-4.461h55.517C-61.114,89.351-59.13,91.333-59.13,93.812"/>
</g>
<g>
	<path fill="#010101" d="M333.403,122.831c20.545-20.853,20.545-54.672,0-75.528c-20.546-20.854-53.856-20.854-74.402,0
		c-20.546,20.856-20.546,54.676,0,75.528C279.547,143.691,312.857,143.691,333.403,122.831 M339.366,137.943
		c-26.577,22.409-66.083,20.968-90.995-4.32c-26.418-26.814-26.418-70.294,0-97.109c26.416-26.816,69.244-26.816,95.662,0
		c24.11,24.477,26.214,62.831,6.314,89.731l42.395,42.854c3.1,3.141,3.112,8.232-0.018,11.411
		c-3.105,3.152-8.174,3.123-11.234,0.017L339.366,137.943z"/>
</g>
<path fill="#010101" d="M357.778,167.166l48.467-52.788c7.783-8.478,12.068-19.748,12.068-31.734
	c0-11.99-4.287-23.253-12.068-31.734c-7.788-8.48-18.138-13.147-29.145-13.147s-21.355,4.667-29.132,13.144L334.701,65.35
	l-13.262-14.443c-7.787-8.484-18.135-13.144-29.141-13.144s-21.357,4.667-29.136,13.144c-7.785,8.484-12.07,19.755-12.074,31.737
	c0,11.99,4.29,23.257,12.072,31.734l48.462,52.788c8.239,8.972,15.572,13.144,23.078,13.144c2.94,0,5.926-0.674,8.887-2.004
	C348.137,176.253,352.784,172.612,357.778,167.166"/>
<g>
	<path fill="#010101" d="M99.902,170.643c-8.511,0-16.555-4.439-25.313-13.978l-46.099-50.218
		c-8.179-8.908-12.684-20.723-12.684-33.272c0.003-12.545,4.509-24.361,12.686-33.272c8.271-9.011,19.308-13.978,31.075-13.978
		c11.765,0,22.802,4.967,31.079,13.978l9.255,10.083l9.261-10.083c8.27-9.011,19.305-13.978,31.07-13.978
		c11.765,0,22.804,4.967,31.08,13.985c8.181,8.908,12.685,20.719,12.685,33.265c0,12.553-4.507,24.372-12.685,33.276l-46.099,50.214
		c-5.181,5.644-10.084,9.46-14.986,11.669"/>
	<path fill="#FFFFFF" d="M59.568,35.297c-9.182,0-17.831,3.916-24.355,11.028c-6.629,7.222-10.281,16.846-10.285,27.104
		c0,10.254,3.652,19.878,10.283,27.101l46.099,50.215c6.907,7.524,12.816,11.027,18.593,11.027c2.139,0,4.354-0.506,6.585-1.507
		c3.752-1.692,7.679-4.807,12.008-9.521l46.099-50.215c6.631-7.215,10.283-16.842,10.283-27.104
		c0-10.254-3.652-19.875-10.283-27.097c-6.527-7.115-15.179-11.031-24.36-11.031c-9.179,0-17.83,3.916-24.351,11.028l-15.98,17.398
		L83.927,46.325C77.399,39.213,68.748,35.297,59.568,35.297"/>
</g>
</svg>
